…
## Plotting with Tidyverse GGPlot

```r
library ('tidyverse')
x <- read_csv ('https://d3s.mff.cuni.cz/files/teaching/nswi131/labs/01/data.csv.gz')
```

The value of `x` is of type tibble, which is a specific type of a table.

```r
x
```

```text
# A tibble: 117,971 x 4
   benchmark     score  loop   run
   <chr>         <dbl> <dbl> <dbl>
 1 alpha     461331349     1     1
 2 alpha     197597673     2     1
 3 alpha     180138333     3     1
 4 alpha     174773075     4     1
 5 alpha     328616794     5     1
 6 alpha     390904361     6     1
 7 alpha     138603295     7     1
 8 alpha     133475760     8     1
 9 alpha     153667583     9     1
10 alpha     131513684    10     1
# … with 117,961 more rows
```
…
